TERM,FREQUENCY
ppp,103
itu,94
kpk,79
untuk,76
dari,74
ini,69
dalam,65
kata,52
pada,51
tersebut,47
akan,45
kemenag,45
sebagai,44
romahurmuziy,43
ada,42
saat,40
juta,39
juga,37
uang,35
kasus,35
ruang,34
tersangka,34
kantor,33
tak,33
tidak,32
menag,31
mukernas,31
kepada,29
kerja,29
salah,29
karena,29
ketum,27
kepala,27
haris,27
oleh,27
rommy,27
dia,27
satu,26
menjadi,26
ketua,26
sudah,25
diduga,25
mengatakan,25
selasa,24
polisi,24
nama,24
suharso,24
jabatan,23
muafaq,23
menyebut,23
suap,22
mereka,22
dilakukan,21
dpw,21
khofifah,21
telah,20
hari,20
bisa,20
puisi,20
lukman,19
jakarta,19
seperti,19
beberapa,19
baru,19
adalah,19
dpp,19
duit,18
senin,18
bahwa,18
agama,17
setelah,17
sebelumnya,17
wilayah,17
merupakan,17
orang,17
penembakan,17
lagi,17
hal,17
jawa,16
timur,16
hasanuddin,16
detikcom,16
pihak,16
pengurus,16
plt,16
saja,16
mengaku,16
anak,16
lainnya,15
pelaku,15
waktu,15
dua,15
ujar,15
ponsel,15
ramyadjie,15
data,15
hakim,14
humas,14
ott,14
termasuk,14
dokumen,14
jumat,14
terkait,14
masih,14
memiliki,14
turki,14
terjadi,14
lain,14
program,14
lebih,14
penggeledahan,13
tangan,13
tim,13
menyatakan,13
kabupaten,13
lalu,13
foto,13
sama,13
soal,13
seorang,13
waketum,13
selain,13
jokpin,13
ikan,13
menteri,12
febri,12
dugaan,12
melakukan,12
bogor,12
disebut,12
tengah,12
nasional,12
monoarfa,12
banyak,12
joko,12
makam,12
disita,11
wirahadi,11
hasil,11
sejumlah,11
seleksi,11
kota,11
utrecht,11
keluarga,11
pernah,11
video,11
lena,11
ingin,11
baik,11
indonesia,11
penganggur,11
sapardi,11
rizky,11
abu,11
riky,11
ratusan,10
operasi,10
tangkap,10
proses,10
gresik,10
korban,10
bekerja,10
ditetapkan,10
media,10
dirinya,10
digelar,10
mencari,10
hingga,10
rapat,10
rudiman,10
para,10
jatim,10
diy,10
amin,10
diketahui,10
google,10
argo,10
kali,10
facebook,10
raja,10
jumlah,9
saifuddin,9
muhammad,9
memberikan,9
yakni,9
usai,9
kementerian,9
belanda,9
jika,9
tanis,9
teror,9
partai,9
menjabat,9
pusat,9
pasal,9
besar,9
tutur,9
membuat,9
beredar,9
jaya,9
begitu,9
bagi,9
pinurbo,9
diansyah,8
selatan,8
jual,8
beli,8
penyidik,8
pengisian,8
ditangkap,8
bersama,8
gedung,8
jalan,8
sempat,8
harus,8
dikutip,8
tahun,8
kini,8
masjid,8
negara,8
menurut,8
forum,8
harian,8
dihubungi,8
minggu,8
pertimbangan,8
sabtu,8
musyafa,8
ardern,8
lipat,8
bagian,8
ketika,8
metro,8
cara,8
laporan,8
kartu,8
mendapatkan,8
vernita,8
richie,8
insentif,8
kebijakan,8
masuk,8
febian,8
ibu,8
tony,8
wisata,8
imogiri,8
nias,8
mastuki,8
kabiro,7
tidaknya,7
kaitan,7
mengatur,7
menyetor,7
sebelum,7
luar,7
kawasan,7
pun,7
anggota,7
pria,7
dilansir,7
tiga,7
kelahiran,7
lokasi,7
pengganti,7
calon,7
umum,7
rumah,7
memang,7
new,7
zealand,7
apa,7
resmi,7
desain,7
benar,7
bukan,7
kedua,7
polda,7
menggunakan,7
februari,7
pekerjaan,7
dikenal,7
tempat,7
karya,7
tenaga,7
pertanian,7
detikhot,7
azel,7
hiu,7
syarif,7
undangan,7
kantornya,6
eks,6
ditemukan,6
satunya,6
pemberi,6
polres,6
aksi,6
belum,6
kembali,6
menegaskan,6
trem,6
setempat,6
melaporkan,6
kelompok,6
teroris,6
bandara,6
musyawarah,6
kamis,6
agenda,6
art,6
mengusulkan,6
mau,6
sebut,6
membeli,6
pula,6
karding,6
masalah,6
skimming,6
web,6
atm,6
penumpang,6
akun,6
angel,6
istri,6
sang,6
pemberian,6
masyarakat,6
sektor,6
tae,6
hyun,6
taruhan,6
olla,6
sedang,6
prasetyo,6
lewat,6
marwa,6
atalarik,6
oppie,6
djoko,6
damono,6
keduanya,6
menggeledah,6
penangkaran,6
cun,6
pradita,6
sail,6
faik,6
wartawan,5
kuningan,5
persada,5
perkara,5
berkaitan,5
akhirnya,5
menangkap,5
modus,5
sejak,5
bulan,5
sekjen,5
dpr,5
menerima,5
gokmen,5
kepolisian,5
menewaskan,5
insiden,5
mendorong,5
negeri,5
diri,5
kemungkinan,5
utama,5
kejadian,5
sebuah,5
pernyataan,5
sekitar,5
segera,5
hotel,5
pandangan,5
siapa,5
kader,5
sesuai,5
arsul,5
diusulkan,5
indar,5
parawansa,5
arwani,5
pengalaman,5
lanjut,5
hukum,5
pertama,5
meski,5
tapi,5
mana,5
layar,5
sisi,5
pkb,5
pembangunan,5
acara,5
nasabah,5
sementara,5
dapat,5
merampok,5
kemudian,5
pintu,5
melalui,5
sosial,5
jelas,5
lulus,5
siap,5
sampai,5
mendatangkan,5
kurikulum,5
lapangan,5
penurunan,5
total,5
jung,5
joon,5
young,5
cha,5
maupun,5
katanya,5
buku,5
syah,5
radit,5
azri,5
slipknot,5
memberi,5
densus,5
biro,5
wisatawan,5
bangunan,5
ruf,5
rupiah,5
wakil,5
reni,5
ribu,4
dolar,4
berinisial,4
benny,4
penangkapan,4
maret,4
nur,4
terhadap,4
sendiri,4
ruangan,4
bukti,4
ikut,4
membantu,4
ayah,4
berita,4
afp,4
mantan,4
tetap,4
tinggal,4
pengamanan,4
seluruh,4
sekolah,4
islam,4
memastikan,4
pihaknya,4
bernama,4
dekat,4
khusus,4
besok,4
mengukuhkan,4
disepakati,4
dibahas,4
segala,4
menggantikan,4
amir,4
uskara,4
nantinya,4
muqowan,4
menurutnya,4
anggaran,4
tangga,4
bersedia,4
enggan,4
gubernur,4
yaitu,4
kinerja,4
zakaria,4
dianggap,4
christchurch,4
setiap,4
tegas,4
secara,4
melihat,4
lipatnya,4
mirip,4
awal,4
kebutuhan,4
politisi,4
melibatkan,4
korupsi,4
lanjutnya,4
bitcoin,4
menjelaskan,4
menyampaikan,4
komunitas,4
rekening,4
berbagai,4
mengenai,4
nurohim,4
taksi,4
online,4
mobil,4
ekonomi,4
instagram,4
tanpa,4
semakin,4
pra,4
atas,4
manusia,4
mengorbankan,4
hidup,4
tingkat,4
konsumsi,4
cukup,4
bantuan,4
tanf,4
berbeda,4
langsung,4
platform,4
terlibat,4
ketiga,4
chan,4
vicky,4
anggia,4
penyair,4
anaknya,4
andaresta,4
terduga,4
festival,4
ala,4
mengalami,4
membedakan,4
myspace,4
penting,4
menuju,4
personel,4
chris,4
fehn,4
alias,4
dedi,4
karimunjawa,4
ujarnya,4
longsor,4
ambrol,4
mataram,4
area,4
membangun,4
budaya,4
puan,4
klarifikasi,4
pasca,4
huruf,4
puluhan,3
menelusuri,3
reskrim,3
akp,3
beraksi,3
bekasi,3
digunakan,3
mengambil,3
bank,3
pemanggilan,3
kholis,3
kerjanya,3
barang,3
berasal,3
mehmet,3
merilis,3
melukai,3
lima,3
kehilangan,3
istrinya,3
menikah,3
selandia,3
terminal,3
pemerintah,3
pengusaha,3
bergabung,3
bersenjata,3
antaranya,3
erdogan,3
badan,3
menyelidiki,3
apakah,3
motif,3
twitter,3
perdana,3
berada,3
guna,3
berlambang,3
kakbah,3
rabu,3
maryana,3
mukti,3
disampaikan,3
sesuatu,3
diponegoro,3
penolakan,3
penunjukan,3
khususnya,3
sani,3
berlaku,3
ditunjuk,3
sayangnya,3
mumpuni,3
pasalnya,3
fokus,3
sebenarnya,3
thomafi,3
komisi,3
putra,3
purworejo,3
mengunjungi,3
tegasnya,3
dakwaan,3
pembunuhan,3
pidana,3
senjata,3
vendor,3
memperkenalkan,3
paten,3
lipatan,3
gizmo,3
china,3
saling,3
konfirmasi,3
mungkin,3
pasar,3
ditambah,3
harga,3
kardus,3
durian,3
terima,3
dana,3
jokowi,3
turut,3
menyerahkan,3
urusan,3
pilpres,3
justru,3
kejahatannya,3
kabid,3
kombes,3
yuwono,3
deep,3
membobol,3
sehari,3
mesin,3
internet,3
mudah,3
mengungkap,3
tahu,3
menyebutkan,3
pemilik,3
tuturnya,3
perempuan,3
mendekati,3
miliknya,3
selingkuhan,3
five,3
minutes,3
mendadak,3
qulbiah,3
kemarin,3
dilihat,3
laporannya,3
pelantun,3
postingan,3
ternyata,3
punya,3
perlu,3
komunikasi,3
memungkinkan,3
marah,3
selanjutnya,3
rasa,3
luang,3
teori,3
memilih,3
time,3
bila,3
maksimal,3
inilah,3
pengangguran,3
upah,3
peningkatan,3
kesejahteraan,3
dampak,3
posisi,3
mendaftar,3
sehingga,3
contoh,3
mampu,3
dunia,3
smk,3
ialah,3
tindak,3
porno,3
ilegal,3
aktif,3
hukuman,3
aktor,3
percakapan,3
silam,3
tulis,3
isu,3
ramlan,3
kerap,3
gramedia,3
puisinya,3
tsania,3
depan,3
cuma,3
karyanya,3
tia,3
agnes,3
pungkas,3
menyayangi,3
raditya,3
dika,3
anissa,3
youtube,3
channel,3
mulai,3
jadi,3
lagu,3
selama,3
merasa,3
berharap,3
ajeng,3
whatsapp,3
live,3
menghapus,3
mati,3
dibawa,3
ming,3
min,3
bantul,3
pengunjung,3
dalem,3
sujiman,3
ambrolnya,3
sultan,3
cawapres,3
opera,3
kebudayaan,3
penanganan,3
banteng,3
laode,3
bergerak,3
pejabat,3
pimpinan,3
menghitung,2
totalnya,2
komplotan,2
pencuri,2
gembos,2
ban,2
pecah,2
kaca,2
caleg,2
kasat,2
cahyadi,2
tangerang,2
mengamankan,2
alat,2
pencurian,2
cibinong,2
imbuh,2
bakal,2
memanggil,2
setiawan,2
mendatangi,2
penyitaan,2
usd,2
putranya,2
yozgat,2
bercerai,2
provinsi,2
massal,2
berwenang,2
memperketat,2
diperketat,2
meliputi,2
bbc,2
chechnya,2
radikal,2
berafiliasi,2
menamakan,2
isis,2
ita,2
presiden,2
perselisihan,2
otoritas,2
dilaporkan,2
mark,2
lokal,2
kendaraan,2
akibat,2
kereta,2
dkp,2
berstatus,2
sejauh,2
muncul,2
usulan,2
seruni,2
dikonfirmasi,2
keputusan,2
diterima,2
jelang,2
merangkum,2
sedikitnya,2
kandidat,2
dimunculkan,2
ataupun,2
berikut,2
daftarnya,2
majelis,2
dikukuhkan,2
pengangkatan,2
bermunculan,2
politikus,2
senior,2
akhmad,2
seharusnya,2
pendapat,2
disanggah,2
hadir,2
sosok,2
noer,2
sembarangan,2
tulen,2
dinilai,2
melobi,2
dicalonkan,2
sebulan,2
harinya,2
mengapa,2
menjagokan,2
sambungnya,2
kiai,2
thoifur,2
parlemen,2
bahasa,2
tampil,2
memakai,2
warga,2
australia,2
dijerat,2
ditegaskan,2
berjanji,2
reformasi,2
api,2
rancangan,2
tekuk,2
samsung,2
motorola,2
pro,2
kontra,2
berisi,2
diusung,2
dilipat,2
bawah,2
kecil,2
celah,2
antar,2
perihal,2
banyaknya,2
sesumbar,2
suatu,2
musuh,2
mengingatkan,2
muhaimin,2
abdul,2
kadir,2
persaingan,2
bermula,2
daerah,2
menyikapi,2
singgung,2
prihatin,2
yakin,2
persen,2
priambodo,2
mengetahui,2
transaksi,2
gemar,2
hidupnya,2
pembobolan,2
menyita,2
pencari,2
belajar,2
paparnya,2
kejahatan,2
mitra,2
awalnya,2
diantar,2
membawa,2
tol,2
cutter,2
syabilla,2
pencemaran,2
surat,2
lambe,2
turah,2
seksi,2
tanggal,2
menuliskan,2
dikabarkan,2
lama,2
warganet,2
timpal,2
sering,2
peristiwa,2
sebetulnya,2
psikolog,2
vero,2
emosi,2
ikatan,2
daperum,2
politik,2
tentang,2
ditawarkan,2
berfungsi,2
tentu,2
nanti,2
ketenagakerjaan,2
bukunya,2
economics,2
leisure,2
apabila,2
maka,2
diperoleh,2
gaji,2
malas,2
efek,2
situ,2
segan,2
capai,2
dibanding,2
riil,2
families,2
berupa,2
ibunya,2
orangtuanya,2
berjalan,2
penduduk,2
barulah,2
dimulai,2
diberikan,2
batas,2
semacam,2
sangat,2
senang,2
memanfaatkan,2
capres,2
akhir,2
menurun,2
cepat,2
dibandingkan,2
disiapkan,2
lahan,2
keuntungan,2
kalah,2
terbesar,2
siswa,2
agar,2
industri,2
kakanwil,2
digeledah,2
pencarian,2
korea,2
soompi,2
tindakan,2
menyebar,2
melacak,2
penyebaran,2
alamat,2
menyebarkan,2
penjara,2
denda,2
komedian,2
artis,2
berhasil,2
dapatkan,2
sambil,2
tulisnya,2
buah,2
kaki,2
jenjang,2
netizen,2
netter,2
urai,2
ketahuan,2
vieranni,2
meminta,2
pusing,2
menerbitkan,2
novel,2
pustaka,2
gpu,2
kabar,2
akrab,2
disapa,2
tajam,2
mengandung,2
bertemu,2
pertemuan,2
kalau,2
perpustakaan,2
frasa,2
artinya,2
buat,2
makin,2
menambahkan,2
cintanya,2
pembaca,2
menceritakan,2
booming,2
celana,2
menjawab,2
aziza,2
tua,2
papar,2
jelasnya,2
masing,2
sulung,2
sule,2
kekasih,2
kembarannya,2
januari,2
malu,2
andalan,2
malah,2
sebab,2
menyajikan,2
karier,2
situs,2
sayang,2
ungkap,2
ibunda,2
tercinta,2
ditemui,2
mencapai,2
memaknai,2
sikap,2
antiteror,2
rokan,2
hilir,2
rohil,2
riau,2
diamankan,2
penerangan,2
karo,2
penmas,2
divisi,2
polri,2
brigjen,2
bagan,2
pukul,2
wib,2
pratomo,2
mem,2
posting,2
arahan,2
grup,2
fernandes,2
memutuskan,2
tragedi,2
diunggah,2
streaming,2
dikelola,2
jenis,2
ekor,2
matinya,2
milik,2
terpisah,2
agus,2
karang,2
terang,2
banjir,2
tanah,2
kunjungan,2
penutupan,2
akses,2
abdi,2
ucapnya,2
pemakaman,2
parah,2
separah,2
kreatif,2
promosi,2
mancanegara,2
fay,2
membuka,2
panitia,2
detiktravel,2
kepulauan,2
bahari,2
destinasi,2
yasonna,2
ucap,2
berlangsung,2
tiket,2
pesawat,2
kedatangan,2
keberangkatan,2
solo,2
domestik,2
tercatat,2
fahmi,2
bali,2
turis,2
pengelola,2
penerbangan,2
pecahan,2
kewenangan,2
informasi,2
sambung,2
penerima,2
hrs,2
penetapan,2
markas,2
dimintai,2
kepegawaian,2
penerimaan,2
tinggi,2
lelang,2
pemberantasan,2
ayat,2
menggelar,2
tertera,2
pengukuhan,2
setuju,2
perlawanan,2
menunjuk,2
satreskrim,1
bermodus,1
parpol,1
dapil,1
cahyadikasat,1
farhan,1
busi,1
sandal,1
handpone,1
tunai,1
kelima,1
gor,1
pakansari,1
bca,1
cholis,1
kapan,1
malam,1
mengklarifikasi,1
penyegelan,1
selaku,1
pengaturan,1
saksi,1
ruangannya,1
merupakkan,1
haf,1
dhn,1
asal,1
dihukum,1
terbukti,1
bersalah,1
dha,1
fotonya,1
kontak,1
menuturkan,1
bermukim,1
kayseri,1
recep,1
tayyip,1
intelijen,1
serangan,1
mengesampingkan,1
stasiun,1
televisi,1
ulke,1
kerabat,1
anadolu,1
tewas,1
ewn,1
turun,1
gokman,1
wali,1
jan,1
van,1
zanen,1
memperingatkan,1
mendekatinya,1
rutte,1
pesta,1
demokrasi,1
meningkatkan,1
keamanan,1
aparat,1
antiterorisme,1
menunjukkan,1
bertopeng,1
darurat,1
berhenti,1
jembatan,1
anp,1
mengutip,1
operator,1
qbuzz,1
lintas,1
dihentikan,1
ringan,1
rel,1
diambil,1
pembahasan,1
penetapannya,1
jacinda,1
pernyataannya,1
alasannya,1
emosional,1
terbaru,1
mengawalinya,1
salam,1
arab,1
kerudung,1
wellington,1
empat,1
diidentifikasi,1
brenton,1
tarrant,1
pengadilan,1
dijeratkan,1
kekuatan,1
penuh,1
diberlakukan,1
aturan,1
kepemilikan,1
legal,1
senapan,1
semi,1
otomatis,1
dipakainya,1
smartphone,1
huawei,1
komersil,1
pabrikan,1
xiaomi,1
kehadiran,1
menuai,1
agaknya,1
ketinggalan,1
besutan,1
sekilas,1
razr,1
kerang,1
galaxy,1
fold,1
menggambarkan,1
menimpa,1
menyebabkan,1
kanan,1
kiri,1
kompastekno,1
mewujudkannya,1
bocroan,1
muali,1
diwujudkan,1
apalagi,1
penampilan,1
android,1
versi,1
beta,1
menghadirkan,1
menelurkan,1
pixel,1
foldable,1
meragukan,1
dibanderol,1
kisaran,1
dollar,1
jutaan,1
jengah,1
kena,1
ganti,1
iskandar,1
lontar,1
peranyataan,1
maman,1
imanulhaq,1
romy,1
tersandung,1
tudingan,1
giliran,1
miliar,1
disimpan,1
petinggi,1
kemenakertrans,1
penggelontoran,1
percepatan,1
infrastruktur,1
dpid,1
papua,1
menakertrans,1
hanyalah,1
bermotif,1
menghadiri,1
konsolidasi,1
pemenangan,1
menyangkut,1
demikian,1
sepenuhnya,1
membelit,1
pribadi,1
menggerus,1
elektabilitas,1
paslon,1
meraih,1
suara,1
berapa,1
dimiliki,1
elas,1
merugikan,1
senilai,1
elektronik,1
memenuhi,1
apartemen,1
sudirman,1
menangkapnya,1
darinya,1
memperoleh,1
world,1
wide,1
dicari,1
indeks,1
bagaimana,1
skimmer,1
membelinya,1
sendirian,1
mengumpulkan,1
setidaknya,1
memasukkan,1
marak,1
penyelidikan,1
tangsel,1
mengembangkan,1
larinya,1
jafar,1
sopir,1
rupanya,1
sewaan,1
mapolda,1
aplikasi,1
cetusnya,1
sengaja,1
menyewa,1
sebutnya,1
nekat,1
terimpit,1
memesan,1
kemang,1
jaksel,1
minta,1
rumahnya,1
jatisampurna,1
ruas,1
keluar,1
jatiwarna,1
menyiapkan,1
menodong,1
memaksa,1
harta,1
wajah,1
pahanya,1
gosip,1
wanita,1
baiknya,1
bertepatan,1
terpampang,1
storiesnya,1
meramaikan,1
membantah,1
aisah,1
berdamai,1
manis,1
vokalis,1
ditanggapi,1
sinis,1
berusaha,1
komen,1
simamora,1
dendam,1
dimarahi,1
berguna,1
ditangani,1
keji,1
perbaikan,1
veronica,1
adesla,1
personal,1
growth,1
gejolak,1
perasaan,1
tersampaikan,1
bermaksud,1
menyakiti,1
detikhealth,1
kecakapan,1
menekankan,1
pentingnya,1
pengendalian,1
kontrol,1
jenih,1
pesan,1
belah,1
memperbaiki,1
supaya,1
memancing,1
nainggolan,1
saudara,1
maya,1
boru,1
ambarita,1
menidurkan,1
pasangan,1
suami,1
menjalankan,1
atmosfer,1
memanas,1
perang,1
adu,1
janji,1
sengit,1
bersaing,1
kontes,1
paling,1
wahid,1
hangat,1
diperbincangkan,1
menengah,1
kejuruan,1
timbul,1
memandang,1
siapapun,1
menang,1
tepatkah,1
diterapkan,1
george,1
borjas,1
labor,1
pilihan,1
dasar,1
work,1
opsi,1
waktunya,1
ideal,1
santai,1
bekerjanya,1
luangnya,1
idealnya,1
bersantai,1
ria,1
konsekuensi,1
turunnya,1
jasa,1
daya,1
pendapatan,1
zero,1
starting,1
point,1
menikmati,1
dirasa,1
luasnya,1
melesat,1
naik,1
terdapat,1
pekerja,1
melepas,1
pekerjaannya,1
simpelnya,1
kita,1
menganggur,1
didapat,1
kasar,1
semenjak,1
amerika,1
serikat,1
serupa,1
sejahtera,1
aid,1
with,1
dependent,1
children,1
afdc,1
permanen,1
yatim,1
piatu,1
ditinggal,1
lumpuh,1
lambat,1
laun,1
buruk,1
negatif,1
ditimbulkan,1
kecenderungan,1
meningkatnya,1
pernikahan,1
afds,1
dihapuskan,1
digantikan,1
temporary,1
assistance,1
for,1
needy,1
nya,1
memotivasi,1
menginginkan,1
terhenti,1
sistem,1
mengajukan,1
praktek,1
welfare,1
flipping,1
berdekatan,1
antardua,1
ganda,1
sebutan,1
double,1
dipping,1
snarr,1
friesner,1
burkey,1
benahi,1
dijelaskan,1
kemalasan,1
seyogianya,1
cenderung,1
pembukaan,1
padat,1
perekonomian,1
terserap,1
melahirkan,1
produktif,1
misalkan,1
bps,1
agustus,1
persentase,1
terlaju,1
dialami,1
andaikan,1
penyerapan,1
diharapkan,1
mencegah,1
merosotnya,1
disediakan,1
didukung,1
teknologi,1
canggih,1
menjadikan,1
berkaca,1
walaupun,1
pertaniannya,1
jauh,1
sempit,1
pengekspor,1
komoditas,1
agraria,1
cbs,1
netherlands,1
daripada,1
pendidikan,1
membenahi,1
diungkapkan,1
direktur,1
center,1
reform,1
core,1
mohammad,1
faisal,1
detikfinance,1
dibutuhkan,1
mengganti,1
disesuaikan,1
mengutamakan,1
praktik,1
diajak,1
menceburkan,1
permintaan,1
semisal,1
teknik,1
besi,1
baja,1
otomotif,1
sebagainya,1
bekal,1
pengetahuan,1
tentunya,1
memudahkan,1
peruntukan,1
diklarifikasi,1
direkam,1
bocor,1
fitur,1
airdrop,1
itupun,1
tersebar,1
kunci,1
panas,1
portal,1
berencana,1
luaskan,1
identitas,1
diancam,1
beserta,1
rumor,1
palsu,1
terancam,1
mendapat,1
disertai,1
terungkap,1
tersimpan,1
melihatkan,1
kim,1
jun,1
diskusi,1
golf,1
lakukan,1
thailand,1
kala,1
ketiganya,1
membintangi,1
night,1
days,1
kedapatan,1
menyombongkan,1
menyertakan,1
gambar,1
setumpuk,1
setelahnya,1
memamerkan,1
obrolan,1
judi,1
beranggapan,1
lah,1
pengalihan,1
kontroversi,1
nggak,1
kenal,1
muda,1
terlihat,1
berfoto,1
menemani,1
hatinya,1
menimbulkan,1
kecemburuan,1
merayu,1
model,1
pacar,1
rayuan,1
direct,1
message,1
membeberkan,1
kekesalannya,1
stories,1
menggoda,1
cewek,1
padahal,1
berpacaran,1
tampak,1
asyik,1
berjoget,1
mengisi,1
perdananya,1
penerbit,1
mengumumkan,1
sastragpu,1
penggemarnya,1
menyambut,1
antusias,1
terbarunya,1
memadukan,1
antara,1
narasi,1
humor,1
ironi,1
wikipedia,1
piawai,1
mengolah,1
citraan,1
mengacu,1
objek,1
cair,1
refleksi,1
kontemplasi,1
menyentuh,1
absurditas,1
suaminya,1
penganiayaan,1
perbuatan,1
menyenangkan,1
dibuat,1
buntut,1
terjadinya,1
percekcokan,1
pesinetron,1
cantik,1
disindir,1
terus,1
cekcok,1
luka,1
fisik,1
mempolisikan,1
attila,1
doni,1
adik,1
kakak,1
dihalangi,1
kamar,1
berseteru,1
berupaya,1
memenangkan,1
hak,1
asuh,1
gugatan,1
bergulir,1
dimusikalisasi,1
album,1
baju,1
april,1
nyeleneh,1
diangkat,1
menyangka,1
digubah,1
ajang,1
litbeat,1
misalnya,1
menanyakan,1
saya,1
yah,1
disingkat,1
aslinya,1
bising,1
riuh,1
imaji,1
bolong,1
ceruk,1
bermaknaoppie,1
bermakna,1
memuji,1
musikalisasinya,1
bagus,1
terangkum,1
membaca,1
mengaransemen,1
kenamaan,1
genre,1
dihadirkan,1
kesamaan,1
panjangnya,1
writers,1
and,1
readers,1
saking,1
tiada,1
henti,1
lantaran,1
sesi,1
tanda,1
tujuan,1
menembak,1
sembari,1
tertawa,1
kiprah,1
berbarengan,1
namanya,1
hilang,1
diterbitkan,1
kumpulan,1
diberi,1
judul,1
kian,1
berkibar,1
keberatan,1
mempublikasikan,1
ulang,1
caption,1
diupload,1
serentak,1
apresiasi,1
berubah,1
sih,1
lantas,1
mengerem,1
kebiasaan,1
belanjanya,1
jarang,1
pergi,1
bioskop,1
bapak,1
nikah,1
menghabiskan,1
keempat,1
youtuber,1
berebut,1
konten,1
beber,1
sekarang,1
jomblo,1
berkenalan,1
proyek,1
film,1
pendek,1
kesemsem,1
kembar,1
identik,1
susah,1
cerita,1
putri,1
delina,1
casting,1
berlanjut,1
syuting,1
ragu,1
keinginannya,1
komika,1
lolox,1
ceritanya,1
berpacara,1
bingung,1
kekasihnya,1
tukas,1
musisi,1
jengkel,1
katalog,1
nme,1
kate,1
nash,1
klaxons,1
arctic,1
monkeys,1
mengenalkan,1
barunya,1
link,1
simpan,1
tautan,1
diinginkan,1
migrasi,1
server,1
perwakilan,1
resminya,1
penggarapan,1
albumnya,1
cabut,1
band,1
loudwire,1
mengabarkan,1
diperkuat,1
pemain,1
perkusinya,1
selisih,1
dipermasalahkan,1
menggugat,1
bandnya,1
disayangkan,1
ambil,1
diminta,1
menghadap,1
kuasa,1
karakter,1
topeng,1
berhidung,1
panjang,1
pinocchio,1
merayakan,1
jatuh,1
desember,1
mengungkapan,1
kasihnya,1
penyanyi,1
baginya,1
segalanya,1
hut,1
transmedia,1
sunburst,1
bersyukur,1
dilahirkan,1
berdarah,1
seni,1
kental,1
mengalir,1
berkarya,1
semua,1
bahagia,1
membanggakan,1
terkecuali,1
lina,1
sapa,1
mama,1
hits,1
kesempurnaan,1
cinta,1
berterima,1
kasih,1
bunda,1
menuntunnya,1
bandung,1
berbicara,1
raviando,1
psi,1
pendekatan,1
terlebih,1
dahulu,1
cuek,1
diajarkan,1
mencontoh,1
peran,1
panutan,1
busur,1
panah,1
hendak,1
sarapan,1
bos,1
airasia,1
menutup,1
bentuk,1
protes,1
disiarkan,1
cnn,1
follower,1
buatan,1
zuckerberg,1
tambahnya,1
melancarkan,1
bejadnya,1
berdurasi,1
menit,1
menegur,1
dukungan,1
pujian,1
terorisme,1
mengalu,1
penggemar,1
meninggalkan,1
cuitannya,1
mengkritik,1
berpikir,1
penyerangan,1
menjangan,1
sampel,1
air,1
laboratorium,1
dicek,1
independen,1
bercerita,1
kolam,1
kambing,1
lebar,1
tyger,1
heran,1
penyebab,1
ranah,1
dok,1
tandasnya,1
diwawancara,1
balai,1
taman,1
prabowo,1
menerangkan,1
ditangkar,1
dilindungi,1
hitam,1
carcharinus,1
melanopterus,1
putih,1
treaenodon,1
obesus,1
merusak,1
dibatasi,1
bencana,1
minat,1
ditutup,1
diperbolehkan,1
bangsal,1
kagungan,1
dusun,1
pajimatan,1
desa,1
girirejo,1
kecamatan,1
sejarah,1
dimasuki,1
tertentu,1
diperkenankan,1
memasuki,1
menapaki,1
menjulang,1
dikenakan,1
tarif,1
tersedia,1
kotak,1
amal,1
kompleks,1
skala,1
tepatnya,1
sri,1
tergolong,1
visi,1
mengomentari,1
infrastuktur,1
pengembangan,1
debat,1
sebagaimana,1
pariwisata,1
menarik,1
perhatian,1
sydney,1
house,1
populer,1
koordinator,1
bidang,1
pmk,1
maharani,1
juli,1
sambutannya,1
tonggak,1
wilayahnya,1
menggaet,1
investor,1
the,1
residence,1
buka,1
saatnya,1
gaet,1
investorfoto,1
suasana,1
launching,1
masaul,1
potensi,1
ombaknya,1
spot,1
selancar,1
terbaik,1
atraksi,1
lompat,1
batunya,1
khas,1
tersendiri,1
mengangkat,1
tema,1
gerbang,1
menkumham,1
laoly,1
pemasukan,1
devisa,1
rangkaian,1
kegiatan,1
mahalnya,1
berimbas,1
adi,1
soemarmo,1
signifikan,1
angkasa,1
pura,1
persero,1
periode,1
dirut,1
internasional,1
gusti,1
ngurah,1
rai,1
badung,1
mahaldirut,1
aditya,1
mardiastuti,1
kunjungannya,1
terpantau,1
lesu,1
arus,1
meningkat,1
berkomunikasi,1
maskapai,1
solusi,1
dibatalkan,1
sepi,1
menduga,1
pembatalan,1
maintenance,1
perawatan,1
mata,1
sekaligus,1
kesiapan,1
pembuktian,1
keterangan,1
membuktikan,1
penelusuran,1
pejabatnya,1
dipelajari,1
menyeret,1
pangeran,1
diberhentikan,1
posisinya,1
diobok,1
obok,1
diamini,1
administrasi,1
keuangan,1
sekretariat,1
menyegel,1
jumpa,1
pers,1
disiplin,1
kooperatif,1
pengusutan,1
disegel,1
difungsikan,1
jusuf,1
kalla,1
lazim,1
operasional,1
wapres,1
medan,1
merdeka,1
utara,1
melanjutkan,1
pasti,1
menyimpan,1
kas,1
bersangkutan,1
keperluan,1
adanya,1
lingkugan,1
kalinya,1
zaman,1
said,1
agil,1
husin,1
munawar,1
suryadharma,1
ali,1
imbuhnya,1
meloloskan,1
disebutkan,1
menemui,1
mengurus,1
tercantum,1
datang,1
kediaman,1
adapun,1
diserahkan,1
asisten,1
nuryadin,1
any,1
juru,1
bicara,1
nomor,1
kuhp,1
disangkakan,1
melanggar,1
marlinawati,1
pertanyaan,1
diberitakan,1
agendanya,1
persatuan,1
sore,1
jadwal,1
membenarkan,1
dijadwalkan,1
ditandatangani,1
sekretaris,1
jenderal,1
disetujui,1
definitif,1
menjerat,1
mulanya,1
maksud,1
mengundang,1
dewan,1
berandai,1
andai,1
intinya,1
